Boss_Xuong.png
size:632,269
filter:Linear,Linear
enemy_guzu_fashi_1_1
bounds:336,2,34,41
offsets:0,0,35,41
rotate:90
enemy_guzu_fashi_1_12
bounds:267,2,36,67
rotate:90
enemy_guzu_fashi_1_13
bounds:195,2,36,70
rotate:90
enemy_guzu_fashi_1_14
bounds:112,2,40,59
offsets:0,0,41,59
enemy_guzu_fashi_1_15
bounds:550,27,31,72
rotate:90
enemy_guzu_fashi_1_16
bounds:154,2,39,59
enemy_guzu_fashi_1_17
bounds:379,10,29,41
enemy_guzu_fashi_1_18
bounds:371,53,89,100
offsets:1,0,90,100
enemy_guzu_fashi_1_19
bounds:2,63,41,199
offsets:2,0,43,199
rotate:90
enemy_guzu_fashi_1_2
bounds:2,16,45,108
rotate:90
enemy_guzu_fashi_1_20
bounds:463,60,167,207
enemy_guzu_fashi_1_22
bounds:2,106,34,367
rotate:90
enemy_guzu_fashi_1_26
bounds:2,142,125,300
offsets:0,0,125,301
rotate:90
enemy_guzu_fashi_1_27
bounds:462,38,20,86
rotate:90
enemy_guzu_fashi_1_3
bounds:203,40,64,149
rotate:90
enemy_guzu_fashi_1_4
bounds:304,155,157,112
enemy_guzu_fashi_1_5
bounds:354,79,25,15
offsets:6,7,37,30
rotate:90
